Charge name,Cash paying rate,Insurance rate
Root Canal,12000,12000
Extraction A,1500,1500
Extraction J,1500,1500
Root Canal Treatment,12000,12000
GIC Filling ,4000,4000
Intra Oral,1000,1000
Complex Extraction -Retained Root,2500,2500
Composite Filling,4000,4000
Open Disimpaction ,7500,7500
Composite Filling,4000,4000
Extraction Retained Roots,2500,2500
Root Planning,7000,7000
