Employee Number,Salary Advance Amount
119,5000
116,5000
115,5000
103,4000
111,5000
109,2500
125,1500
117,6000
118,6000
110,3000
120,2000
133,3000
131,3000
107,2000
124,2000
135,2000
132,2000
102,4000
130,10000
113,5000
126,3000
